id,part0,part1,part2,part3
Yes,はい,
No,なし,
Please,してください、
Thank_you,ありがとう、
Where_is_the_bathroom?,トイレはどこですか、
Where_can_I_connect_to_the_internet?,どこでインターネットに接続できますか？、
Over_there,あそこ、
I_dont_know,私にはわからない、
I_am_hot,私は,暑いです,
I_am_cold,私は,寒いです,
I_am_hungry,私は,飢えている,
I_am_thirsty,私は,のどが渇いて,
I_need_medicine,私は,薬を必要とする,
I_need_to_use_the_bathroom,私がトイレを使用する必要があります,
I_need_to_be_suctioned,私は,、吸引する必要があります,
I_need_a_break,私は休憩が必要、
I_need_a_rinse,私はリンスを必要とし、
My_jaw_hurts,私の顎が痛い、
How_much_longer?,どのぐらいかかるんだ？、
My_lips_are_dry,私の唇は、乾燥している
I_can_feel_pain,私は、痛みを感じることができる
That_is_uncomfortable,つまり、不快である
That_feels_good,気分が良いこと、
That_feels_bad,悪いと感じ、その
My_throat_hurts,私の喉が、痛い
My_head_hurts,頭が痛い、
My_chest_hurts,胸が、痛い
This_hurts,これは痛い、
What_seems_to_be_the_problem?,何が問題であるように見えます？、
Are_you_in_pain?,あなたは苦しんでいる？、
Does_it_hurt_when_I_do_this?,私はこれを行うときには痛いですか？、
I_am_going_to_listen_to_your_lungs,私は、あなたの肺に耳を傾けるつもりです
Breathe_deeply,、深く呼吸する
I_am_going_to_look_in_your_throat,私はあなたの喉を見てするつもりです、
Open_your_mouth_and_stick_out_your_tongue,、あなたの口を開いて、舌を突き出す
I_am_going_to_take_your_temperature,私はあなたの温度を取るつもりです、
I_am_going_to_take_your_blood_pressure,私は、あなたの血圧を取るつもりだ
